\relax 
\@writefile{toc}{\contentsline {part}{I\hspace  {1em}The Hawk Language}{5}}
\@writefile{toc}{\contentsline {chapter}{\numberline {1}Introduction}{7}}
\@writefile{lof}{\addvspace {10\p@ }}
\@writefile{lot}{\addvspace {10\p@ }}
\@writefile{toc}{\contentsline {section}{\numberline {1.1}A first section}{7}}
\@writefile{toc}{\contentsline {section}{\numberline {1.2}Another section}{7}}
\@writefile{toc}{\contentsline {chapter}{\numberline {2}Lexical Structure}{9}}
\@writefile{lof}{\addvspace {10\p@ }}
\@writefile{lot}{\addvspace {10\p@ }}
\@writefile{toc}{\contentsline {chapter}{\numberline {3}Expressions}{11}}
\@writefile{lof}{\addvspace {10\p@ }}
\@writefile{lot}{\addvspace {10\p@ }}
\@writefile{toc}{\contentsline {part}{II\hspace  {1em}The Hawk Libraries}{13}}
\@writefile{toc}{\contentsline {chapter}{\numberline {4}Data.Maybe}{15}}
\@writefile{lof}{\addvspace {10\p@ }}
\@writefile{lot}{\addvspace {10\p@ }}
\@writefile{toc}{\contentsline {part}{III\hspace  {1em}Hawk Language Implementation}{17}}
\@writefile{toc}{\contentsline {chapter}{\numberline {5}Transformations}{19}}
\@writefile{lof}{\addvspace {10\p@ }}
\@writefile{lot}{\addvspace {10\p@ }}
\@writefile{toc}{\contentsline {part}{IV\hspace  {1em}Hawk Type System}{21}}
\@writefile{toc}{\contentsline {chapter}{\numberline {6}Definitions}{25}}
\@writefile{lof}{\addvspace {10\p@ }}
\@writefile{lot}{\addvspace {10\p@ }}
\@writefile{toc}{\contentsline {chapter}{\numberline {7}Proofs}{27}}
\@writefile{lof}{\addvspace {10\p@ }}
\@writefile{lot}{\addvspace {10\p@ }}
\ttl@finishall
